{
  "swagger": "2.0",
  "info": {
    "title": "Mastermind Game API overview",
    "version": "v1",
    "contact": {
      "email": "viictorvallecillo@gmail.com"
    }
  },
  "tags": [
    {
      "description": "Everything about mastermind game",
      "externalDocs": {
        "description": "Find out more",
        "url": "https://en.wikipedia.org/wiki/Mastermind_(board_game)"
      }
    }
  ],
  "host": "0.0.0.0/api",
  "paths": {
    "/createGame": {
      "post": {
        "tags": [
          "Game"
        ],
        "operationId": "createPlayer",
        "summary": "Create player and game given username",
        "parameters": [
          {
            "in": "body",
            "name": "username",
            "description": "Name to identify the player",
            "required": true,
            "schema": {
              "example": {
                "username": "victor"
              }
            }
          }
        ],
        "consumes": [
          "application/json"
        ],
        "produces": [
          "application/json"
        ],
        "responses": {
          "200": {
            "description": "200 response",
            "examples": {
              "application/json": {
                "result": "Game created"
              }
            }
          },
          "400": {
            "description": "Username is required/Repeat username is not allowed"
          }
        }
      }
    },
    "/play": {
      "post": {
        "tags": [
          "Game"
        ],
        "operationId": "playGame",
        "summary": "Play Mastermind Game",
        "parameters": [
          {
            "in": "body",
            "name": "body",
            "description": "Name to identify the player",
            "required": true,
            "schema": {
              "example": {
                "username": "victovm",
                "guess": "YYRG"
              }
            }
          }
        ],
        "consumes": [
          "application/json"
        ],
        "produces": [
          "application/json"
        ],
        "responses": {
          "200": {
            "description": "200 played",
            "examples": {
              "application/json": {
                "username": "victor",
                "found": false,
                "lifes": 6
              }
            }
          }
        }
      }
    },
    "/historic/{username}": {
      "get": {
        "tags": [
          "Game"
        ],
        "operationId": "hisoricGame",
        "summary": "Get historic Mastermind Game by username",
        "parameters": [
          {
            "in": "path",
            "name": "username",
            "description": "Name to identify the player",
            "required": true,
            "type": "string"
          }
        ],
        "consumes": [
          "application/json"
        ],
        "produces": [
          "application/json"
        ],
        "responses": {
          "200": {
            "description": "200 OK",
            "examples": {
              "application/json": {
                "username": "victor",
                "historic game": [
                  {
                    "guess_code": "ZYRG",
                    "black": 1,
                    "white": 1
                  }
                ]
              }
            }
          },
          "400": {
            "description": "400 Username not found",
            "examples": {
              "application/json": {
                "username": "victor",
                "historic game": [
                  {
                    "guess_code": "ZYRG",
                    "black": 1,
                    "white": 1
                  }
                ]
              }
            }
          }
        }
      }
    }
  },
  "definitions": {
    "Player": {
      "type": "object",
      "required": [
        "username"
      ],
      "properties": {
        "_id": {
          "type": "ObjectId"
        },
        "username": {
          "type": "string",
          "example": "viictorvm"
        }
      },
      "xml": {
        "name": "Player"
      }
    },
    "Mastermind": {
      "type": "object",
      "required": [
        "username",
        "secret_code",
        "attempts",
        "attempted_guess"
      ],
      "properties": {
        "_id": {
          "type": "ObjectId"
        },
        "username": {
          "type": "string",
          "example": "viictorvm"
        },
        "secret_code": {
          "type": "list",
          "example": [
            "W",
            "Y",
            "P",
            "R"
          ]
        },
        "attempts": {
          "type": "int",
          "example": 2
        },
        "attempted_guess": {
          "type": "array ObjectId"
        }
      },
      "xml": {
        "name": "Player"
      }
    },
    "Attempted Guess": {
      "type": "object",
      "required": [
        "guess_colours",
        "exact",
        "partial"
      ],
      "properties": {
        "_id": {
          "type": "ObjectId"
        },
        "guess_colours": {
          "type": "list string",
          "example": [
            "Z",
            "Y",
            "R",
            "G"
          ]
        },
        "exact": {
          "type": "int",
          "example": 2
        },
        "partial": {
          "type": "int",
          "example": 1
        }
      },
      "xml": {
        "name": "Player"
      }
    }
  }
}